%YAML 1.1
%TAG !u! tag:unity3d.com,2011:
--- !u!74 &7400000
AnimationClip:
  m_ObjectHideFlags: 0
  m_CorrespondingSourceObject: {fileID: 0}
  m_PrefabInstance: {fileID: 0}
  m_PrefabAsset: {fileID: 0}
  m_Name: fall
  serializedVersion: 6
  m_Legacy: 0
  m_Compressed: 0
  m_UseHighQualityCurve: 1
  m_RotationCurves: []
  m_CompressedRotationCurves: []
  m_EulerCurves: []
  m_PositionCurves: []
  m_ScaleCurves: []
  m_FloatCurves: []
  m_PPtrCurves:
  - curve:
    - time: 0
      value: {fileID: -527742336, guid: 8193a6b737dbf5e45b3cdaad05cab9ec, type: 3}
    - time: 0.041666668
      value: {fileID: -387911368, guid: 8193a6b737dbf5e45b3cdaad05cab9ec, type: 3}
    - time: 0.083333336
      value: {fileID: 1541285645, guid: 8193a6b737dbf5e45b3cdaad05cab9ec, type: 3}
    - time: 0.125
      value: {fileID: -732488930, guid: 8193a6b737dbf5e45b3cdaad05cab9ec, type: 3}
    - time: 0.16666667
      value: {fileID: 676810994, guid: 8193a6b737dbf5e45b3cdaad05cab9ec, type: 3}
    - time: 0.20833333
      value: {fileID: 676810994, guid: 8193a6b737dbf5e45b3cdaad05cab9ec, type: 3}
    - time: 0.25
      value: {fileID: 1731380485, guid: 8193a6b737dbf5e45b3cdaad05cab9ec, type: 3}
    - time: 0.29166666
      value: {fileID: 153269001, guid: 8193a6b737dbf5e45b3cdaad05cab9ec, type: 3}
    - time: 0.33333334
      value: {fileID: -1856131537, guid: 8193a6b737dbf5e45b3cdaad05cab9ec, type: 3}
    - time: 0.375
      value: {fileID: 1432080609, guid: 8193a6b737dbf5e45b3cdaad05cab9ec, type: 3}
    - time: 0.41666666
      value: {fileID: -1372380657, guid: 8193a6b737dbf5e45b3cdaad05cab9ec, type: 3}
    - time: 0.45833334
      value: {fileID: 907212051, guid: 8193a6b737dbf5e45b3cdaad05cab9ec, type: 3}
    - time: 0.5
      value: {fileID: -102835046, guid: 8193a6b737dbf5e45b3cdaad05cab9ec, type: 3}
    - time: 0.5416667
      value: {fileID: 2011329470, guid: 8193a6b737dbf5e45b3cdaad05cab9ec, type: 3}
    - time: 0.5833333
      value: {fileID: 1467680347, guid: 8193a6b737dbf5e45b3cdaad05cab9ec, type: 3}
    - time: 0.625
      value: {fileID: 1641845652, guid: 8193a6b737dbf5e45b3cdaad05cab9ec, type: 3}
    - time: 0.6666667
      value: {fileID: 1982872603, guid: 8193a6b737dbf5e45b3cdaad05cab9ec, type: 3}
    - time: 0.7083333
      value: {fileID: -1171266340, guid: 8193a6b737dbf5e45b3cdaad05cab9ec, type: 3}
    - time: 0.75
      value: {fileID: -974750833, guid: 8193a6b737dbf5e45b3cdaad05cab9ec, type: 3}
    - time: 0.7916667
      value: {fileID: -575894578, guid: 8193a6b737dbf5e45b3cdaad05cab9ec, type: 3}
    - time: 0.8333333
      value: {fileID: 405483072, guid: 8193a6b737dbf5e45b3cdaad05cab9ec, type: 3}
    - time: 0.875
      value: {fileID: 1672665309, guid: 8193a6b737dbf5e45b3cdaad05cab9ec, type: 3}
    - time: 0.9166667
      value: {fileID: 1619564459, guid: 8193a6b737dbf5e45b3cdaad05cab9ec, type: 3}
    - time: 0.9583333
      value: {fileID: 1071493873, guid: 8193a6b737dbf5e45b3cdaad05cab9ec, type: 3}
    - time: 1
      value: {fileID: 245108156, guid: 8193a6b737dbf5e45b3cdaad05cab9ec, type: 3}
    - time: 1.0416666
      value: {fileID: -1921662808, guid: 8193a6b737dbf5e45b3cdaad05cab9ec, type: 3}
    - time: 1.0833334
      value: {fileID: 1223942562, guid: 8193a6b737dbf5e45b3cdaad05cab9ec, type: 3}
    - time: 1.125
      value: {fileID: 211769037, guid: 8193a6b737dbf5e45b3cdaad05cab9ec, type: 3}
    - time: 1.1666666
      value: {fileID: 701696789, guid: 8193a6b737dbf5e45b3cdaad05cab9ec, type: 3}
    - time: 1.2083334
      value: {fileID: -1612703627, guid: 8193a6b737dbf5e45b3cdaad05cab9ec, type: 3}
    - time: 1.25
      value: {fileID: -1332140985, guid: 8193a6b737dbf5e45b3cdaad05cab9ec, type: 3}
    - time: 1.2916666
      value: {fileID: -184587875, guid: 8193a6b737dbf5e45b3cdaad05cab9ec, type: 3}
    - time: 1.3333334
      value: {fileID: 411412725, guid: 8193a6b737dbf5e45b3cdaad05cab9ec, type: 3}
    - time: 1.375
      value: {fileID: -861190792, guid: 8193a6b737dbf5e45b3cdaad05cab9ec, type: 3}
    - time: 1.4166666
      value: {fileID: 797087659, guid: 8193a6b737dbf5e45b3cdaad05cab9ec, type: 3}
    - time: 1.4583334
      value: {fileID: 39065464, guid: 8193a6b737dbf5e45b3cdaad05cab9ec, type: 3}
    - time: 1.5
      value: {fileID: -1867212823, guid: 8193a6b737dbf5e45b3cdaad05cab9ec, type: 3}
    - time: 1.5416666
      value: {fileID: 110837794, guid: 8193a6b737dbf5e45b3cdaad05cab9ec, type: 3}
    - time: 1.5833334
      value: {fileID: -1805525041, guid: 8193a6b737dbf5e45b3cdaad05cab9ec, type: 3}
    - time: 1.625
      value: {fileID: 2090438120, guid: 8193a6b737dbf5e45b3cdaad05cab9ec, type: 3}
    - time: 1.6666666
      value: {fileID: 446265689, guid: 8193a6b737dbf5e45b3cdaad05cab9ec, type: 3}
    - time: 1.7083334
      value: {fileID: 945910048, guid: 8193a6b737dbf5e45b3cdaad05cab9ec, type: 3}
    - time: 1.75
      value: {fileID: -58325164, guid: 8193a6b737dbf5e45b3cdaad05cab9ec, type: 3}
    - time: 1.7916666
      value: {fileID: -817868021, guid: 8193a6b737dbf5e45b3cdaad05cab9ec, type: 3}
    - time: 1.8333334
      value: {fileID: -1469567805, guid: 8193a6b737dbf5e45b3cdaad05cab9ec, type: 3}
    attribute: m_Sprite
    path: 
    classID: 212
    script: {fileID: 0}
  m_SampleRate: 24
  m_WrapMode: 0
  m_Bounds:
    m_Center: {x: 0, y: 0, z: 0}
    m_Extent: {x: 0, y: 0, z: 0}
  m_ClipBindingConstant:
    genericBindings:
    - serializedVersion: 2
      path: 0
      attribute: 0
      script: {fileID: 0}
      typeID: 212
      customType: 23
      isPPtrCurve: 1
    pptrCurveMapping:
    - {fileID: -527742336, guid: 8193a6b737dbf5e45b3cdaad05cab9ec, type: 3}
    - {fileID: -387911368, guid: 8193a6b737dbf5e45b3cdaad05cab9ec, type: 3}
    - {fileID: 1541285645, guid: 8193a6b737dbf5e45b3cdaad05cab9ec, type: 3}
    - {fileID: -732488930, guid: 8193a6b737dbf5e45b3cdaad05cab9ec, type: 3}
    - {fileID: 676810994, guid: 8193a6b737dbf5e45b3cdaad05cab9ec, type: 3}
    - {fileID: 676810994, guid: 8193a6b737dbf5e45b3cdaad05cab9ec, type: 3}
    - {fileID: 1731380485, guid: 8193a6b737dbf5e45b3cdaad05cab9ec, type: 3}
    - {fileID: 153269001, guid: 8193a6b737dbf5e45b3cdaad05cab9ec, type: 3}
    - {fileID: -1856131537, guid: 8193a6b737dbf5e45b3cdaad05cab9ec, type: 3}
    - {fileID: 1432080609, guid: 8193a6b737dbf5e45b3cdaad05cab9ec, type: 3}
    - {fileID: -1372380657, guid: 8193a6b737dbf5e45b3cdaad05cab9ec, type: 3}
    - {fileID: 907212051, guid: 8193a6b737dbf5e45b3cdaad05cab9ec, type: 3}
    - {fileID: -102835046, guid: 8193a6b737dbf5e45b3cdaad05cab9ec, type: 3}
    - {fileID: 2011329470, guid: 8193a6b737dbf5e45b3cdaad05cab9ec, type: 3}
    - {fileID: 1467680347, guid: 8193a6b737dbf5e45b3cdaad05cab9ec, type: 3}
    - {fileID: 1641845652, guid: 8193a6b737dbf5e45b3cdaad05cab9ec, type: 3}
    - {fileID: 1982872603, guid: 8193a6b737dbf5e45b3cdaad05cab9ec, type: 3}
    - {fileID: -1171266340, guid: 8193a6b737dbf5e45b3cdaad05cab9ec, type: 3}
    - {fileID: -974750833, guid: 8193a6b737dbf5e45b3cdaad05cab9ec, type: 3}
    - {fileID: -575894578, guid: 8193a6b737dbf5e45b3cdaad05cab9ec, type: 3}
    - {fileID: 405483072, guid: 8193a6b737dbf5e45b3cdaad05cab9ec, type: 3}
    - {fileID: 1672665309, guid: 8193a6b737dbf5e45b3cdaad05cab9ec, type: 3}
    - {fileID: 1619564459, guid: 8193a6b737dbf5e45b3cdaad05cab9ec, type: 3}
    - {fileID: 1071493873, guid: 8193a6b737dbf5e45b3cdaad05cab9ec, type: 3}
    - {fileID: 245108156, guid: 8193a6b737dbf5e45b3cdaad05cab9ec, type: 3}
    - {fileID: -1921662808, guid: 8193a6b737dbf5e45b3cdaad05cab9ec, type: 3}
    - {fileID: 1223942562, guid: 8193a6b737dbf5e45b3cdaad05cab9ec, type: 3}
    - {fileID: 211769037, guid: 8193a6b737dbf5e45b3cdaad05cab9ec, type: 3}
    - {fileID: 701696789, guid: 8193a6b737dbf5e45b3cdaad05cab9ec, type: 3}
    - {fileID: -1612703627, guid: 8193a6b737dbf5e45b3cdaad05cab9ec, type: 3}
    - {fileID: -1332140985, guid: 8193a6b737dbf5e45b3cdaad05cab9ec, type: 3}
    - {fileID: -184587875, guid: 8193a6b737dbf5e45b3cdaad05cab9ec, type: 3}
    - {fileID: 411412725, guid: 8193a6b737dbf5e45b3cdaad05cab9ec, type: 3}
    - {fileID: -861190792, guid: 8193a6b737dbf5e45b3cdaad05cab9ec, type: 3}
    - {fileID: 797087659, guid: 8193a6b737dbf5e45b3cdaad05cab9ec, type: 3}
    - {fileID: 39065464, guid: 8193a6b737dbf5e45b3cdaad05cab9ec, type: 3}
    - {fileID: -1867212823, guid: 8193a6b737dbf5e45b3cdaad05cab9ec, type: 3}
    - {fileID: 110837794, guid: 8193a6b737dbf5e45b3cdaad05cab9ec, type: 3}
    - {fileID: -1805525041, guid: 8193a6b737dbf5e45b3cdaad05cab9ec, type: 3}
    - {fileID: 2090438120, guid: 8193a6b737dbf5e45b3cdaad05cab9ec, type: 3}
    - {fileID: 446265689, guid: 8193a6b737dbf5e45b3cdaad05cab9ec, type: 3}
    - {fileID: 945910048, guid: 8193a6b737dbf5e45b3cdaad05cab9ec, type: 3}
    - {fileID: -58325164, guid: 8193a6b737dbf5e45b3cdaad05cab9ec, type: 3}
    - {fileID: -817868021, guid: 8193a6b737dbf5e45b3cdaad05cab9ec, type: 3}
    - {fileID: -1469567805, guid: 8193a6b737dbf5e45b3cdaad05cab9ec, type: 3}
  m_AnimationClipSettings:
    serializedVersion: 2
    m_AdditiveReferencePoseClip: {fileID: 0}
    m_AdditiveReferencePoseTime: 0
    m_StartTime: 0
    m_StopTime: 1.875
    m_OrientationOffsetY: 0
    m_Level: 0
    m_CycleOffset: 0
    m_HasAdditiveReferencePose: 0
    m_LoopTime: 1
    m_LoopBlend: 0
    m_LoopBlendOrientation: 0
    m_LoopBlendPositionY: 0
    m_LoopBlendPositionXZ: 0
    m_KeepOriginalOrientation: 0
    m_KeepOriginalPositionY: 1
    m_KeepOriginalPositionXZ: 0
    m_HeightFromFeet: 0
    m_Mirror: 0
  m_EditorCurves: []
  m_EulerEditorCurves: []
  m_HasGenericRootTransform: 0
  m_HasMotionFloatCurves: 0
  m_Events: []
